{
  "data": [
    {
      "id": 1,
      "log_name": "default",
      "description": "Nana Ata booked Conference Rooms",
      "subject_id": 68,
      "subject_type": "App\\RoomBooking",
      "causer_id": 27,
      "causer_type": "App\\User",
      "properties": { "attributes": { "space_id": 1 } },
      "created_at": "2020-03-24T19:17:38.000000Z",
      "updated_at": "2020-03-24T19:17:38.000000Z"
    }
  ],
  "meta": {
    "current_page": 1,
    "from": 1,
    "last_page": 14,
    "path": "",
    "per_page": 15,
    "to": 15,
    "total": 209
  },
  "links": {
    "first": "",
    "last": "",
    "prev": null,
    "next": ""
  }
}
